Random Forest Prediciton of Somatic Indels from Marekâ€™s Disease Lymphomas
…
################################################################################

Validated Variants Combined

print(table(val_df$VAL2))

## 
##  FP  TP 
## 181  21

print(val_df %>% dplyr::filter(VAL2 == 'TP'))

## # A tibble: 21 x 6
##    CHROM       POS REF                    ALT   SAMPLE      VAL2 
##    <chr>     <int> <fct>                  <fct> <chr>       <chr>
##  1 2      80972149 TGTAACTACGCCTGCCGGCGCA T     911-1_S24   TP   
##  2 2      80972149 TGTAACTACGCCTGCCGGCGCA T     911-1_2_S13 TP   
##  3 17      6421696 TCTC                   T     834-2_2_S12 TP   
##  4 17      6421696 TCTC                   T     834-2_S7    TP   
##  5 2      80972152 A                      AACT  918-3_S10   TP   
##  6 3      34836601 A                      AT    834-2_2_S12 TP   
##  7 3      34836601 A                      AT    834-2_S7    TP   
##  8 2     129910321 A                      ATGGT 901-2_2_S26 TP   
##  9 1     116547765 C                      CA    834-2_S7    TP   
## 10 1     116547765 C                      CA    834-2_2_S12 TP   
## # â€¦ with 11 more rows
…
